{
    "Retail Coordinator": {
        "username": "retail_coordinator",
        "password": "password"
    },
    "IT God": {
        "username": "it.god",
        "password": "it.god"
    },

    "Buying": {
        "username": "buying",
        "password": "password"
    },

    "Prodman Support": {
        "username": "prodman.support",
        "password": "password"
    },

    "Upload Planner": {
        "username": "upload.planner",
        "password": "password"
    }
}